Tools for Automated Data Analysis (TADA) Module 1: Water Quality Portal Data Discovery and Cleaning • TADA
…
TADAProfile_CharSummary <- TADA_summarizeColumn(TADAProfile, "TADA.CharacteristicName")

TADAProfile_CharSummary
#> # A tibble: 133 × 3
#>    TADA.CharacteristicName n_sites n_records
#>    <chr>                     <int>     <int>
#>  1 .ALPHA.-ENDOSULFAN            6         7
#>  2 .BETA.-ENDOSULFAN             6         7
#>  3 ALDRIN                        6         7
#>  4 ALKALINITY, TOTAL           159      3557
#>  5 ALPHA PARTICLE               10        24
#>  6 ALUMINUM                     10        28
#>  7 AMMONIA                       4         4
#>  8 AMMONIA-NITROGEN            104      1366
#>  9 AMMONIUM                     17       214
#> 10 APPARENT COLOR               42       302
#> # ℹ 123 more rows
…
